[
    {
        "id": 2,
        "name": "Testing Round 2",
        "startTime": "2018-06-10T12:30:00.000Z",
        "endTime": "2018-06-10T16:10:00.000Z",
        "duration": 3,
        "writters": [
            "xuanquang1999",
            "longhoang08",
            "nickyrio",
            "dqhungdl",
            "phanduy16",
            "helium99"
        ],
        "id_contest": 1,
        "code": 0,
        "practice_url": null,
        "facebook_url": "",
        "createdAt": "2018-06-08T08:31:47.644Z",
        "updatedAt": "2018-06-10T16:15:08.368Z",
        "isRegistered": false,
        "hasRegistered": false,
        "cntReg": 137,
        "wrrts": [
            {
                "username": "xuanquang1999",
                "color": 0
            },
            {
                "username": "longhoang08",
                "color": 0
            },
            {
                "username": "nickyrio",
                "color": 0
            },
            {
                "username": "dqhungdl",
                "color": 0
            },
            {
                "username": "phanduy16",
                "color": 0
            },
            {
                "username": "helium99",
                "color": 0
            }
        ]
    },
    {
        "id": 3,
        "name": "Free Contest 82",
        "startTime": "2018-06-27T12:30:00.000Z",
        "endTime": "2018-06-27T15:30:00.000Z",
        "duration": 3,
        "writters": [
            "xuanquang1999"
        ],
        "id_contest": 1,
        "code": 0,
        "practice_url": null,
        "facebook_url": "",
        "createdAt": "2018-06-27T07:44:13.411Z",
        "updatedAt": "2018-06-27T07:45:25.663Z",
        "isRegistered": false,
        "hasRegistered": false,
        "cntReg": 112,
        "wrrts": [
            {
                "username": "xuanquang1999",
                "color": 0
            }
        ]
    },
    {
        "id": 38,
        "name": "Free Contest 83",
        "startTime": "2018-07-11T12:30:00.000Z",
        "endTime": "2018-07-11T15:45:00.000Z",
        "duration": 3,
        "writters": [
            "xuanquang1999"
        ],
        "id_contest": 1,
        "code": 1,
        "practice_url": null,
        "facebook_url": "",
        "createdAt": "2018-07-11T09:34:26.087Z",
        "updatedAt": "2018-07-11T15:47:25.537Z",
        "isRegistered": false,
        "hasRegistered": false,
        "cntReg": 180,
        "wrrts": [
            {
                "username": "xuanquang1999",
                "color": 0
            }
        ]
    },
    {
        "id": 39,
        "name": "Free Contest 84",
        "startTime": "2018-07-25T12:30:00.000Z",
        "endTime": "2018-07-25T15:30:00.000Z",
        "duration": 3,
        "writters": [
            "xuanquang1999"
        ],
        "id_contest": 1,
        "code": 1,
        "practice_url": null,
        "facebook_url": "",
        "createdAt": "2018-07-25T11:33:38.689Z",
        "updatedAt": "2018-07-25T13:11:20.655Z",
        "isRegistered": false,
        "hasRegistered": false,
        "cntReg": 147,
        "wrrts": [
            {
                "username": "xuanquang1999",
                "color": 0
            }
        ]
    },
    {
        "id": 41,
        "name": "Free Contest 85",
        "startTime": "2018-08-12T12:30:00.000Z",
        "endTime": "2018-08-12T15:30:00.000Z",
        "duration": 3,
        "writters": [
            "phanduy16",
            "longhoang08",
            "bvd",
            "I_love_Thanh_Tam"
        ],
        "id_contest": 1,
        "code": 1,
        "practice_url": null,
        "facebook_url": "",
        "createdAt": "2018-08-12T07:21:12.804Z",
        "updatedAt": "2018-09-09T11:09:59.633Z",
        "isRegistered": false,
        "hasRegistered": false,
        "cntReg": 145,
        "wrrts": [
            {
                "username": "phanduy16",
                "color": 0
            },
            {
                "username": "longhoang08",
                "color": 0
            },
            {
                "username": "bvd",
                "color": 0
            },
            {
                "username": "I_love_Thanh_Tam",
                "color": 0
            }
        ]
    },
    {
        "id": 42,
        "name": "Free Contest 86",
        "startTime": "2018-08-26T12:30:00.000Z",
        "endTime": "2018-08-26T15:50:00.000Z",
        "duration": 3,
        "writters": [
            "xuanquang1999",
            "bvd",
            "themastermind",
            "I_love_Thanh_Tam"
        ],
        "id_contest": 1,
        "code": 1,
        "practice_url": null,
        "facebook_url": "",
        "createdAt": "2018-08-26T08:48:37.344Z",
        "updatedAt": "2018-09-09T11:05:06.800Z",
        "isRegistered": false,
        "hasRegistered": false,
        "cntReg": 140,
        "wrrts": [
            {
                "username": "xuanquang1999",
                "color": 0
            },
            {
                "username": "bvd",
                "color": 0
            },
            {
                "username": "themastermind",
                "color": 0
            },
            {
                "username": "I_love_Thanh_Tam",
                "color": 0
            }
        ]
    },
    {
        "id": 43,
        "name": "Testing Round",
        "startTime": "2018-09-09T12:30:00.000Z",
        "endTime": "2018-09-09T15:30:00.000Z",
        "duration": 3,
        "writters": [
            "xuanquang1999",
            "longhoang08",
            "phanduy16",
            "bvd"
        ],
        "id_contest": 1,
        "code": 1,
        "practice_url": null,
        "facebook_url": "",
        "createdAt": "2018-09-08T03:06:18.428Z",
        "updatedAt": "2018-09-09T12:17:27.153Z",
        "isRegistered": false,
        "hasRegistered": false,
        "cntReg": 160,
        "wrrts": [
            {
                "username": "xuanquang1999",
                "color": 0
            },
            {
                "username": "longhoang08",
                "color": 0
            },
            {
                "username": "phanduy16",
                "color": 0
            },
            {
                "username": "bvd",
                "color": 0
            }
        ]
    },
    {
        "id": 45,
        "name": "Free Contest 87",
        "startTime": "2018-09-23T12:30:00.000Z",
        "endTime": "2018-09-23T15:30:00.000Z",
        "duration": 3,
        "writters": [
            "xuanquang1999"
        ],
        "id_contest": 1,
        "code": 0,
        "practice_url": null,
        "facebook_url": "",
        "createdAt": "2018-09-19T15:12:17.735Z",
        "updatedAt": "2018-12-06T07:03:49.838Z",
        "isRegistered": false,
        "hasRegistered": false,
        "cntReg": 151,
        "wrrts": [
            {
                "username": "xuanquang1999",
                "color": 0
            }
        ]
    },
    {
        "id": 46,
        "name": "Free Contest 88",
        "startTime": "2018-10-07T12:30:00.000Z",
        "endTime": "2018-10-07T15:30:00.000Z",
        "duration": 3,
        "writters": [
            "tuankiet65"
        ],
        "id_contest": 1,
        "code": 1,
        "practice_url": null,
        "facebook_url": "",
        "createdAt": "2018-10-02T15:44:46.773Z",
        "updatedAt": "2018-10-07T12:33:51.131Z",
        "isRegistered": false,
        "hasRegistered": false,
        "cntReg": 195,
        "wrrts": [
            {
                "username": "tuankiet65",
                "color": 0
            }
        ]
    },
    {
        "id": 47,
        "name": "Beginner Free Contest 1",
        "startTime": "2018-10-15T12:30:00.000Z",
        "endTime": "2018-10-15T15:30:00.000Z",
        "duration": 3,
        "writters": [
            "xuanquang1999"
        ],
        "id_contest": 1,
        "code": 1,
        "practice_url": null,
        "facebook_url": "",
        "createdAt": "2018-10-14T02:15:00.499Z",
        "updatedAt": "2018-10-15T12:43:26.368Z",
        "isRegistered": false,
        "hasRegistered": false,
        "cntReg": 165,
        "wrrts": [
            {
                "username": "xuanquang1999",
                "color": 0
            }
        ]
    },
    {
        "id": 50,
        "name": "Free Contest 89",
        "startTime": "2018-10-24T12:45:00.000Z",
        "endTime": "2018-10-24T15:45:00.000Z",
        "duration": 3,
        "writters": [
            "xuanquang1999"
        ],
        "id_contest": 1,
        "code": 1,
        "practice_url": null,
        "facebook_url": "",
        "createdAt": "2018-10-21T15:19:34.267Z",
        "updatedAt": "2018-10-24T13:40:08.231Z",
        "isRegistered": false,
        "hasRegistered": false,
        "cntReg": 229,
        "wrrts": [
            {
                "username": "xuanquang1999",
                "color": 0
            }
        ]
    },
    {
        "id": 57,
        "name": "Free Contest 90",
        "startTime": "2018-11-04T12:45:00.000Z",
        "endTime": "2018-11-04T15:45:00.000Z",
        "duration": 3,
        "writters": [
            "tuankiet65"
        ],
        "id_contest": 2,
        "code": 0,
        "practice_url": null,
        "facebook_url": "",
        "createdAt": "2018-11-03T18:16:02.286Z",
        "updatedAt": "2018-11-04T12:29:19.670Z",
        "isRegistered": false,
        "hasRegistered": false,
        "cntReg": 226,
        "wrrts": [
            {
                "username": "tuankiet65",
                "color": 0
            }
        ]
    },
    {
        "id": 59,
        "name": "Beginner Free Contest 2",
        "startTime": "2018-11-14T12:30:00.000Z",
        "endTime": "2018-11-14T15:30:00.000Z",
        "duration": 3,
        "writters": [
            "xuanquang1999"
        ],
        "id_contest": 1,
        "code": 1,
        "practice_url": null,
        "facebook_url": "",
        "createdAt": "2018-11-12T03:41:39.139Z",
        "updatedAt": "2018-11-14T12:30:07.993Z",
        "isRegistered": false,
        "hasRegistered": false,
        "cntReg": 180,
        "wrrts": [
            {
                "username": "xuanquang1999",
                "color": 0
            }
        ]
    },
    {
        "id": 60,
        "name": "Free Contest 91",
        "startTime": "2018-11-21T12:30:00.000Z",
        "endTime": "2018-11-21T15:30:00.000Z",
        "duration": 3,
        "writters": [
            "xuanquang1999"
        ],
        "id_contest": 1,
        "code": 1,
        "practice_url": null,
        "facebook_url": "",
        "createdAt": "2018-11-19T15:48:36.590Z",
        "updatedAt": "2018-11-21T12:29:38.826Z",
        "isRegistered": false,
        "hasRegistered": false,
        "cntReg": 188,
        "wrrts": [
            {
                "username": "xuanquang1999",
                "color": 0
            }
        ]
    },
    {
        "id": 61,
        "name": "Free Contest 92",
        "startTime": "2018-12-02T12:30:00.000Z",
        "endTime": "2018-12-02T15:30:00.000Z",
        "duration": 3,
        "writters": [
            "xuanquang1999"
        ],
        "id_contest": 1,
        "code": 1,
        "practice_url": null,
        "facebook_url": "",
        "createdAt": "2018-11-29T14:12:07.643Z",
        "updatedAt": "2018-12-03T05:56:25.104Z",
        "isRegistered": false,
        "hasRegistered": false,
        "cntReg": 110,
        "wrrts": [
            {
                "username": "xuanquang1999",
                "color": 0
            }
        ]
    },
    {
        "id": 62,
        "name": "Free Contest Cup 2018",
        "startTime": "2018-12-09T07:00:00.000Z",
        "endTime": "2018-12-09T10:00:00.000Z",
        "duration": 3,
        "writters": [
            "xuanquang1999"
        ],
        "id_contest": 1,
        "code": 1,
        "practice_url": null,
        "facebook_url": "",
        "createdAt": "2018-12-05T17:27:34.122Z",
        "updatedAt": "2018-12-05T17:28:13.724Z",
        "isRegistered": false,
        "hasRegistered": false,
        "cntReg": 194,
        "wrrts": [
            {
                "username": "xuanquang1999",
                "color": 0
            }
        ]
    },
    {
        "id": 64,
        "name": "Free Contest 98",
        "startTime": "2019-05-22T00:00:00.000Z",
        "endTime": "2019-05-27T15:00:00.000Z",
        "duration": 3,
        "writters": [
            "xuanquang1999"
        ],
        "id_contest": 1,
        "code": 0,
        "practice_url": null,
        "facebook_url": "",
        "createdAt": "2019-05-26T13:55:01.100Z",
        "updatedAt": "2019-05-26T13:55:01.100Z",
        "isRegistered": false,
        "hasRegistered": false,
        "cntReg": 103,
        "wrrts": [
            {
                "username": "xuanquang1999",
                "color": 0
            }
        ]
    },
    {
        "id": 65,
        "name": "Testing Round",
        "startTime": "2019-04-28T10:20:00.000Z",
        "endTime": "2019-04-30T11:00:00.000Z",
        "duration": 3,
        "writters": [
            "xuanquang1999"
        ],
        "id_contest": 2,
        "code": 0,
        "practice_url": null,
        "facebook_url": "",
        "createdAt": "2019-04-28T09:09:08.219Z",
        "updatedAt": "2019-04-28T09:40:59.446Z",
        "isRegistered": false,
        "hasRegistered": false,
        "cntReg": 5,
        "wrrts": [
            {
                "username": "xuanquang1999",
                "color": 0
            }
        ]
    }
]